{"content":[{"id":16998587,"testTitle":"test9999","targetSite":"https://yandex.ru/","testType":"SITE","created":"2020-08-18T19:02:31.149556Z","testerCount":0,"testerType":"","status":"DRAFT","completedTestCount":0,"customer":{"id":493309903,"username":"mattjeevas","email":"matt.jeevas@mail.ru","city":null}},{"id":16998537,"testTitle":"test9999","targetSite":"https://yandex.ru/","testType":"SITE","created":"2020-08-18T18:48:34.610194Z","testerCount":0,"testerType":"","status":"DRAFT","completedTestCount":0,"customer":{"id":493309903,"username":"mattjeevas","email":"matt.jeevas@mail.ru","city":null}},{"id":16998487,"testTitle":"test9999","targetSite":"https://yandex.ru/","testType":"SITE","created":"2020-08-18T18:43:53.586506Z","testerCount":0,"testerType":"","status":"DRAFT","completedTestCount":0,"customer":{"id":493309903,"username":"mattjeevas","email":"matt.jeevas@mail.ru","city":null}},{"id":16998437,"testTitle":"test9999","targetSite":"https://yandex.ru/","testType":"SITE","created":"2020-08-18T18:38:22.978159Z","testerCount":0,"testerType":"","status":"DRAFT","completedTestCount":0,"customer":{"id":493309903,"username":"mattjeevas","email":"matt.jeevas@mail.ru","city":null}},{"id":16998387,"testTitle":"test9999","targetSite":"https://yandex.ru/","testType":"SITE","created":"2020-08-18T18:36:53.817079Z","testerCount":0,"testerType":"","status":"DRAFT","completedTestCount":0,"customer":{"id":493309903,"username":"mattjeevas","email":"matt.jeevas@mail.ru","city":null}},{"id":16998337,"testTitle":"test9999","targetSite":"https://yandex.ru/","testType":"SITE","created":"2020-08-18T18:36:07.262005Z","testerCount":0,"testerType":"","status":"DRAFT","completedTestCount":0,"customer":{"id":493309903,"username":"mattjeevas","email":"matt.jeevas@mail.ru","city":null}},{"id":16998287,"testTitle":"test9999","targetSite":"https://yandex.ru/","testType":"SITE","created":"2020-08-18T17:17:58.882435Z","testerCount":0,"testerType":"","status":"DRAFT","completedTestCount":0,"customer":{"id":493309903,"username":"mattjeevas","email":"matt.jeevas@mail.ru","city":null}},{"id":16998237,"testTitle":"test9999","targetSite":"https://yandex.ru/","testType":"SITE","created":"2020-08-18T17:12:47.223627Z","testerCount":0,"testerType":"","status":"DRAFT","completedTestCount":0,"customer":{"id":493309903,"username":"mattjeevas","email":"matt.jeevas@mail.ru","city":null}},{"id":17001437,"testTitle":"test-471","targetSite":"https://yandex.ru/","testType":"SITE","created":"2020-08-19T17:43:53.989155Z","testerCount":50,"testerType":"UXCrowd","status":"DRAFT","completedTestCount":0,"customer":{"id":493309903,"username":"mattjeevas","email":"matt.jeevas@mail.ru","city":null}},{"id":16998137,"testTitle":"test9999","targetSite":"https://yandex.ru/","testType":"SITE","created":"2020-08-18T16:34:31.001689Z","testerCount":0,"testerType":"","status":"DRAFT","completedTestCount":0,"customer":{"id":493309903,"username":"mattjeevas","email":"matt.jeevas@mail.ru","city":null}}],"pageable":{"sort":{"sorted":true,"unsorted":false,"empty":false},"pageSize":10,"pageNumber":8,"offset":80,"paged":true,"unpaged":false},"totalPages":13,"totalElements":123,"last":false,"first":false,"sort":{"sorted":true,"unsorted":false,"empty":false},"number":8,"numberOfElements":10,"size":10,"empty":false}