{"content":[{"id":16998087,"testTitle":"test9999","targetSite":"https://yandex.ru/","testType":"SITE","created":"2020-08-18T16:31:55.792881Z","testerCount":0,"testerType":"","status":"DRAFT","completedTestCount":0,"customer":{"id":493309903,"username":"mattjeevas","email":"matt.jeevas@mail.ru","city":null}},{"id":16997987,"testTitle":"test1","targetSite":"https://yandex.ru","testType":"SITE","created":"2020-08-18T12:47:16.444498Z","testerCount":0,"testerType":"","status":"DRAFT","completedTestCount":0,"customer":{"id":493309903,"username":"mattjeevas","email":"matt.jeevas@mail.ru","city":null}},{"id":16997937,"testTitle":"test99","targetSite":"https://yandex.ru/","testType":"SITE","created":"2020-08-18T09:53:49.686202Z","testerCount":0,"testerType":"","status":"DRAFT","completedTestCount":0,"customer":{"id":493309903,"username":"mattjeevas","email":"matt.jeevas@mail.ru","city":null}},{"id":16997887,"testTitle":"iiii","targetSite":"https://gosth.tu","testType":"SITE","created":"2020-08-17T14:35:20.15122Z","testerCount":0,"testerType":"","status":"DRAFT","completedTestCount":0,"customer":{"id":493309903,"username":"mattjeevas","email":"matt.jeevas@mail.ru","city":null}},{"id":16997837,"testTitle":"тестирование корзины","targetSite":"https://wikiped.ru","testType":"SITE","created":"2020-08-17T13:59:04.085702Z","testerCount":5,"testerType":"UXCrowd","status":"DRAFT","completedTestCount":0,"customer":{"id":493309903,"username":"mattjeevas","email":"matt.jeevas@mail.ru","city":null}},{"id":16997787,"testTitle":"name","targetSite":"https://wikipedia.org","testType":"SITE","created":"2020-08-17T07:34:35.645752Z","testerCount":5,"testerType":"UXCrowd","status":"DRAFT","completedTestCount":0,"customer":{"id":493309903,"username":"mattjeevas","email":"matt.jeevas@mail.ru","city":null}},{"id":16997037,"testTitle":"test 222","targetSite":"https://yandex.ru/","testType":"SITE","created":"2020-08-13T14:05:14.811252Z","testerCount":5,"testerType":"UXCrowd","status":"ACTIVE","completedTestCount":0,"customer":{"id":493309903,"username":"mattjeevas","email":"matt.jeevas@mail.ru","city":null}},{"id":16996887,"testTitle":"Тестирование двери","targetSite":"https://www.wikipedia.org/","testType":"SITE","created":"2020-08-13T12:51:39.575311Z","testerCount":50,"testerType":"UXCrowd","status":"ACTIVE","completedTestCount":0,"customer":{"id":493309903,"username":"mattjeevas","email":"matt.jeevas@mail.ru","city":null}},{"id":16997137,"testTitle":"1","targetSite":"https://www.google.com/?hl=ru","testType":"SITE","created":"2020-08-14T07:16:32.594351Z","testerCount":0,"testerType":"","status":"ACTIVE","completedTestCount":0,"customer":{"id":493309903,"username":"mattjeevas","email":"matt.jeevas@mail.ru","city":null}},{"id":16996937,"testTitle":"123","targetSite":"https://yandex.ru/","testType":"SITE","created":"2020-08-13T13:49:38.658504Z","testerCount":5,"testerType":"UXCrowd","status":"ACTIVE","completedTestCount":0,"customer":{"id":493309903,"username":"mattjeevas","email":"matt.jeevas@mail.ru","city":null}}],"pageable":{"sort":{"sorted":true,"unsorted":false,"empty":false},"pageSize":10,"pageNumber":9,"offset":90,"paged":true,"unpaged":false},"totalPages":13,"totalElements":123,"last":false,"first":false,"sort":{"sorted":true,"unsorted":false,"empty":false},"number":9,"numberOfElements":10,"size":10,"empty":false}