{"content":[{"id":16998187,"testTitle":"test9999","targetSite":"https://yandex.ru/","testType":"SITE","created":"2020-08-18T16:56:10.307286Z","testerCount":0,"testerType":"","status":"DRAFT","completedTestCount":0,"customer":{"id":493309903,"username":"mattjeevas","email":"matt.jeevas@mail.ru","city":null}},{"id":17001487,"testTitle":"test-979","targetSite":"https://yandex.ru/","testType":"SITE","created":"2020-08-19T17:44:40.321094Z","testerCount":50,"testerType":"UXCrowd","status":"DRAFT","completedTestCount":0,"customer":{"id":493309903,"username":"mattjeevas","email":"matt.jeevas@mail.ru","city":null}},{"id":17000237,"testTitle":"test-95","targetSite":"https://yandex.ru/","testType":"SITE","created":"2020-08-19T08:55:54.449157Z","testerCount":0,"testerType":"","status":"DRAFT","completedTestCount":0,"customer":{"id":493309903,"username":"mattjeevas","email":"matt.jeevas@mail.ru","city":null}},{"id":17001537,"testTitle":"test-828","targetSite":"https://yandex.ru/","testType":"SITE","created":"2020-08-19T17:46:44.899291Z","testerCount":50,"testerType":"UXCrowd","status":"DRAFT","completedTestCount":0,"customer":{"id":493309903,"username":"mattjeevas","email":"matt.jeevas@mail.ru","city":null}},{"id":17001587,"testTitle":"test-326","targetSite":"https://yandex.ru/","testType":"SITE","created":"2020-08-19T17:49:08.542934Z","testerCount":50,"testerType":"UXCrowd","status":"DRAFT","completedTestCount":0,"customer":{"id":493309903,"username":"mattjeevas","email":"matt.jeevas@mail.ru","city":null}},{"id":17004687,"testTitle":"2","targetSite":"https://yandex.ru","testType":"SITE","created":"2020-08-21T08:48:39.960888Z","testerCount":5,"testerType":"UXCrowd","status":"DRAFT","completedTestCount":0,"customer":{"id":493309903,"username":"mattjeevas","email":"matt.jeevas@mail.ru","city":null}},{"id":17000087,"testTitle":"Копия_huh","targetSite":"https://gfgf.ry","testType":"SITE","created":"2020-08-19T08:00:22.997406Z","testerCount":5,"testerType":"Свои","status":"DRAFT","completedTestCount":0,"customer":{"id":493309903,"username":"mattjeevas","email":"matt.jeevas@mail.ru","city":null}},{"id":17005387,"testTitle":"nazvanie testa","targetSite":"https://wikipedia.org","testType":"SITE","created":"2020-08-21T20:49:13.795729Z","testerCount":0,"testerType":"","status":"DRAFT","completedTestCount":0,"customer":{"id":493309903,"username":"mattjeevas","email":"matt.jeevas@mail.ru","city":null}},{"id":16999887,"testTitle":"1","targetSite":"https://wikipedia.org","testType":"SITE","created":"2020-08-18T22:50:31.026085Z","testerCount":0,"testerType":"","status":"DRAFT","completedTestCount":0,"customer":{"id":493309903,"username":"mattjeevas","email":"matt.jeevas@mail.ru","city":null}},{"id":16999587,"testTitle":"2","targetSite":"https://yandex.ru/","testType":"SITE","created":"2020-08-18T21:03:47.435057Z","testerCount":0,"testerType":"","status":"DRAFT","completedTestCount":0,"customer":{"id":493309903,"username":"mattjeevas","email":"matt.jeevas@mail.ru","city":null}}],"pageable":{"sort":{"sorted":true,"unsorted":false,"empty":false},"pageSize":10,"pageNumber":10,"offset":100,"paged":true,"unpaged":false},"totalPages":13,"totalElements":123,"last":false,"first":false,"sort":{"sorted":true,"unsorted":false,"empty":false},"number":10,"numberOfElements":10,"size":10,"empty":false}