{"content":[{"id":16998937,"testTitle":"test9999","targetSite":"https://yandex.ru/","testType":"SITE","created":"2020-08-18T19:28:07.610565Z","testerCount":0,"testerType":"","status":"DRAFT","completedTestCount":0,"customer":{"id":493309903,"username":"mattjeevas","email":"matt.jeevas@mail.ru","city":null}},{"id":16998887,"testTitle":"test9999","targetSite":"https://yandex.ru/","testType":"SITE","created":"2020-08-18T19:27:04.010425Z","testerCount":0,"testerType":"","status":"DRAFT","completedTestCount":0,"customer":{"id":493309903,"username":"mattjeevas","email":"matt.jeevas@mail.ru","city":null}},{"id":16998837,"testTitle":"test9999","targetSite":"https://yandex.ru/","testType":"SITE","created":"2020-08-18T19:25:36.878473Z","testerCount":0,"testerType":"","status":"DRAFT","completedTestCount":0,"customer":{"id":493309903,"username":"mattjeevas","email":"matt.jeevas@mail.ru","city":null}}],"pageable":{"sort":{"sorted":true,"unsorted":false,"empty":false},"pageSize":10,"pageNumber":12,"offset":120,"paged":true,"unpaged":false},"totalPages":13,"totalElements":123,"last":true,"first":false,"sort":{"sorted":true,"unsorted":false,"empty":false},"number":12,"numberOfElements":3,"size":10,"empty":false}