{"content":[{"id":17004587,"testTitle":"test-725","targetSite":"https://yandex.ru/","testType":"SITE","created":"2020-08-21T08:44:45.266839Z","startDate":"2020-08-21T08:44:47.86364","testerCount":50,"testerType":"UXCrowd","status":"ACTIVE","completedTestCount":0,"customer":{"id":493309903,"username":"mattjeevas","email":"matt.jeevas@mail.ru","city":null}},{"id":17004537,"testTitle":"test-761","targetSite":"https://yandex.ru/","testType":"SITE","created":"2020-08-21T08:39:33.932475Z","startDate":"2020-08-21T08:39:36.461972","testerCount":50,"testerType":"UXCrowd","status":"ACTIVE","completedTestCount":0,"customer":{"id":493309903,"username":"mattjeevas","email":"matt.jeevas@mail.ru","city":null}},{"id":17004487,"testTitle":"test-727","targetSite":"https://yandex.ru/","testType":"SITE","created":"2020-08-21T08:36:40.693983Z","startDate":"2020-08-21T08:36:43.537524","testerCount":50,"testerType":"UXCrowd","status":"ACTIVE","completedTestCount":0,"customer":{"id":493309903,"username":"mattjeevas","email":"matt.jeevas@mail.ru","city":null}},{"id":17004437,"testTitle":"test-621","targetSite":"https://yandex.ru/","testType":"SITE","created":"2020-08-21T08:33:46.768283Z","startDate":"2020-08-21T08:33:52.59103","testerCount":50,"testerType":"UXCrowd","status":"ACTIVE","completedTestCount":0,"customer":{"id":493309903,"username":"mattjeevas","email":"matt.jeevas@mail.ru","city":null}},{"id":17004387,"testTitle":"test-267","targetSite":"https://yandex.ru/","testType":"SITE","created":"2020-08-21T08:23:03.964192Z","startDate":"2020-08-21T08:23:09.893539","testerCount":50,"testerType":"UXCrowd","status":"ACTIVE","completedTestCount":0,"customer":{"id":493309903,"username":"mattjeevas","email":"matt.jeevas@mail.ru","city":null}},{"id":17004237,"testTitle":"nazvanie testa","targetSite":"https://wikipedia.org","testType":"SITE","created":"2020-08-20T16:25:15.163419Z","startDate":"2020-08-20T16:28:17.990156","testerCount":5,"testerType":"UXCrowd","status":"ACTIVE","completedTestCount":0,"customer":{"id":493309903,"username":"mattjeevas","email":"matt.jeevas@mail.ru","city":null}},{"id":17004187,"testTitle":"nazvanie testirovania","targetSite":"https://wikipedia.org","testType":"SITE","created":"2020-08-20T15:46:00.43679Z","startDate":"2020-08-20T15:48:20.266294","testerCount":5,"testerType":"UXCrowd","status":"ACTIVE","completedTestCount":0,"customer":{"id":493309903,"username":"mattjeevas","email":"matt.jeevas@mail.ru","city":null}},{"id":17004137,"testTitle":"test-001","targetSite":"https://wikipedia.org","testType":"SITE","created":"2020-08-20T15:34:34.591557Z","startDate":"2020-08-20T15:34:56.589814","testerCount":5,"testerType":"UXCrowd","status":"ACTIVE","completedTestCount":0,"customer":{"id":493309903,"username":"mattjeevas","email":"matt.jeevas@mail.ru","city":null}},{"id":17004037,"testTitle":"test-131","targetSite":"https://yandex.ru/","testType":"SITE","created":"2020-08-20T09:23:08.490371Z","startDate":"2020-08-20T09:23:14.985121","testerCount":50,"testerType":"UXCrowd","status":"ACTIVE","completedTestCount":0,"customer":{"id":493309903,"username":"mattjeevas","email":"matt.jeevas@mail.ru","city":null}},{"id":17003987,"testTitle":"test-696","targetSite":"https://yandex.ru/","testType":"SITE","created":"2020-08-20T08:44:55.811376Z","startDate":"2020-08-20T08:45:01.987275","testerCount":50,"testerType":"UXCrowd","status":"ACTIVE","completedTestCount":0,"customer":{"id":493309903,"username":"mattjeevas","email":"matt.jeevas@mail.ru","city":null}}],"pageable":{"sort":{"sorted":true,"unsorted":false,"empty":false},"pageSize":10,"pageNumber":1,"offset":10,"paged":true,"unpaged":false},"totalPages":13,"totalElements":123,"last":false,"first":false,"sort":{"sorted":true,"unsorted":false,"empty":false},"number":1,"numberOfElements":10,"size":10,"empty":false}