{"content":[{"id":17003937,"testTitle":"test-160","targetSite":"https://yandex.ru/","testType":"SITE","created":"2020-08-20T08:43:52.219864Z","startDate":"2020-08-20T08:43:57.570742","testerCount":50,"testerType":"UXCrowd","status":"ACTIVE","completedTestCount":0,"customer":{"id":493309903,"username":"mattjeevas","email":"matt.jeevas@mail.ru","city":null}},{"id":17002837,"testTitle":"test-354","targetSite":"https://yandex.ru/","testType":"SITE","created":"2020-08-19T23:20:19.574769Z","startDate":"2020-08-19T23:20:25.425921","testerCount":50,"testerType":"UXCrowd","status":"ACTIVE","completedTestCount":0,"customer":{"id":493309903,"username":"mattjeevas","email":"matt.jeevas@mail.ru","city":null}},{"id":17002787,"testTitle":"test-864","targetSite":"https://yandex.ru/","testType":"SITE","created":"2020-08-19T23:15:56.099501Z","startDate":"2020-08-19T23:16:01.460619","testerCount":50,"testerType":"UXCrowd","status":"ACTIVE","completedTestCount":0,"customer":{"id":493309903,"username":"mattjeevas","email":"matt.jeevas@mail.ru","city":null}},{"id":17002737,"testTitle":"test-574","targetSite":"https://yandex.ru/","testType":"SITE","created":"2020-08-19T22:56:06.488374Z","startDate":"2020-08-19T22:56:11.490125","testerCount":50,"testerType":"UXCrowd","status":"ACTIVE","completedTestCount":0,"customer":{"id":493309903,"username":"mattjeevas","email":"matt.jeevas@mail.ru","city":null}},{"id":17002687,"testTitle":"test-656","targetSite":"https://yandex.ru/","testType":"SITE","created":"2020-08-19T18:08:00.813457Z","startDate":"2020-08-19T18:08:07.582874","testerCount":50,"testerType":"UXCrowd","status":"ACTIVE","completedTestCount":0,"customer":{"id":493309903,"username":"mattjeevas","email":"matt.jeevas@mail.ru","city":null}},{"id":17002637,"testTitle":"test-782","targetSite":"https://yandex.ru/","testType":"SITE","created":"2020-08-19T18:07:41.42391Z","startDate":"2020-08-19T18:07:47.150421","testerCount":50,"testerType":"UXCrowd","status":"ACTIVE","completedTestCount":0,"customer":{"id":493309903,"username":"mattjeevas","email":"matt.jeevas@mail.ru","city":null}},{"id":17002587,"testTitle":"test-485","targetSite":"https://yandex.ru/","testType":"SITE","created":"2020-08-19T18:07:22.522807Z","startDate":"2020-08-19T18:07:28.099968","testerCount":50,"testerType":"UXCrowd","status":"ACTIVE","completedTestCount":0,"customer":{"id":493309903,"username":"mattjeevas","email":"matt.jeevas@mail.ru","city":null}},{"id":17002537,"testTitle":"test-14","targetSite":"https://yandex.ru/","testType":"SITE","created":"2020-08-19T18:07:04.370441Z","startDate":"2020-08-19T18:07:11.09117","testerCount":50,"testerType":"UXCrowd","status":"ACTIVE","completedTestCount":0,"customer":{"id":493309903,"username":"mattjeevas","email":"matt.jeevas@mail.ru","city":null}},{"id":17002487,"testTitle":"test-231","targetSite":"https://yandex.ru/","testType":"SITE","created":"2020-08-19T18:06:47.057421Z","startDate":"2020-08-19T18:06:52.433237","testerCount":50,"testerType":"UXCrowd","status":"ACTIVE","completedTestCount":0,"customer":{"id":493309903,"username":"mattjeevas","email":"matt.jeevas@mail.ru","city":null}},{"id":17002437,"testTitle":"test-141","targetSite":"https://yandex.ru/","testType":"SITE","created":"2020-08-19T18:06:28.896347Z","startDate":"2020-08-19T18:06:34.278031","testerCount":50,"testerType":"UXCrowd","status":"ACTIVE","completedTestCount":0,"customer":{"id":493309903,"username":"mattjeevas","email":"matt.jeevas@mail.ru","city":null}}],"pageable":{"sort":{"sorted":true,"unsorted":false,"empty":false},"pageSize":10,"pageNumber":2,"offset":20,"paged":true,"unpaged":false},"totalPages":13,"totalElements":123,"last":false,"first":false,"sort":{"sorted":true,"unsorted":false,"empty":false},"number":2,"numberOfElements":10,"size":10,"empty":false}