{"content":[{"id":17001887,"testTitle":"test-163","targetSite":"https://yandex.ru/","testType":"SITE","created":"2020-08-19T18:01:24.271238Z","startDate":"2020-08-19T18:01:28.070576","testerCount":50,"testerType":"UXCrowd","status":"ACTIVE","completedTestCount":0,"customer":{"id":493309903,"username":"mattjeevas","email":"matt.jeevas@mail.ru","city":null}},{"id":17001837,"testTitle":"test-224","targetSite":"https://yandex.ru/","testType":"SITE","created":"2020-08-19T18:01:05.404945Z","startDate":"2020-08-19T18:01:09.548889","testerCount":50,"testerType":"UXCrowd","status":"ACTIVE","completedTestCount":0,"customer":{"id":493309903,"username":"mattjeevas","email":"matt.jeevas@mail.ru","city":null}},{"id":17001787,"testTitle":"test-797","targetSite":"https://yandex.ru/","testType":"SITE","created":"2020-08-19T18:00:47.763324Z","startDate":"2020-08-19T18:00:51.795331","testerCount":50,"testerType":"UXCrowd","status":"ACTIVE","completedTestCount":0,"customer":{"id":493309903,"username":"mattjeevas","email":"matt.jeevas@mail.ru","city":null}},{"id":17001737,"testTitle":"test-500","targetSite":"https://yandex.ru/","testType":"SITE","created":"2020-08-19T18:00:30.839893Z","startDate":"2020-08-19T18:00:35.49703","testerCount":50,"testerType":"UXCrowd","status":"ACTIVE","completedTestCount":0,"customer":{"id":493309903,"username":"mattjeevas","email":"matt.jeevas@mail.ru","city":null}},{"id":17001687,"testTitle":"test-851","targetSite":"https://yandex.ru/","testType":"SITE","created":"2020-08-19T17:59:29.10577Z","startDate":"2020-08-19T17:59:32.990273","testerCount":50,"testerType":"UXCrowd","status":"ACTIVE","completedTestCount":0,"customer":{"id":493309903,"username":"mattjeevas","email":"matt.jeevas@mail.ru","city":null}},{"id":17001637,"testTitle":"t1","targetSite":"https://yandex.ru/","testType":"SITE","created":"2020-08-19T17:51:52.284557Z","startDate":"2020-08-19T17:52:20.427685","testerCount":5,"testerType":"UXCrowd","status":"ACTIVE","completedTestCount":0,"customer":{"id":493309903,"username":"mattjeevas","email":"matt.jeevas@mail.ru","city":null}},{"id":17000387,"testTitle":"test-66","targetSite":"https://yandex.ru/","testType":"SITE","created":"2020-08-19T09:15:19.233184Z","startDate":"2020-08-19T09:15:23.103855","testerCount":50,"testerType":"UXCrowd","status":"ACTIVE","completedTestCount":0,"customer":{"id":493309903,"username":"mattjeevas","email":"matt.jeevas@mail.ru","city":null}},{"id":17000337,"testTitle":"test-72","targetSite":"https://yandex.ru/","testType":"SITE","created":"2020-08-19T09:08:08.880672Z","startDate":"2020-08-19T09:08:14.880046","testerCount":50,"testerType":"UXCrowd","status":"ACTIVE","completedTestCount":0,"customer":{"id":493309903,"username":"mattjeevas","email":"matt.jeevas@mail.ru","city":null}},{"id":17000287,"testTitle":"test-63","targetSite":"https://yandex.ru/","testType":"SITE","created":"2020-08-19T09:04:57.861131Z","startDate":"2020-08-19T09:05:04.333321","testerCount":50,"testerType":"UXCrowd","status":"ACTIVE","completedTestCount":0,"customer":{"id":493309903,"username":"mattjeevas","email":"matt.jeevas@mail.ru","city":null}},{"id":17000187,"testTitle":"Test02_Video_Watch","targetSite":"https://ru.wikipedia.org/","testType":"SITE","created":"2020-08-19T08:05:05.606673Z","startDate":"2020-08-19T08:06:39.397803","testerCount":1,"testerType":"Свои","status":"ACTIVE","completedTestCount":0,"customer":{"id":493309903,"username":"mattjeevas","email":"matt.jeevas@mail.ru","city":null}}],"pageable":{"sort":{"sorted":true,"unsorted":false,"empty":false},"pageSize":10,"pageNumber":4,"offset":40,"paged":true,"unpaged":false},"totalPages":13,"totalElements":123,"last":false,"first":false,"sort":{"sorted":true,"unsorted":false,"empty":false},"number":4,"numberOfElements":10,"size":10,"empty":false}