{"content":[{"id":17000137,"testTitle":"Test01_Video_Watch","targetSite":"https://ru.wikipedia.org/","testType":"SITE","created":"2020-08-19T08:02:37.219046Z","startDate":"2020-08-19T08:04:05.233043","testerCount":1,"testerType":"UXCrowd","status":"COMPLETED","completedTestCount":0,"customer":{"id":493309903,"username":"mattjeevas","email":"matt.jeevas@mail.ru","city":null}},{"id":17000037,"testTitle":"huh","targetSite":"https://gfgf.ry","testType":"SITE","created":"2020-08-19T07:57:39.930764Z","startDate":"2020-08-19T08:00:02.801499","testerCount":5,"testerType":"Свои","status":"COMPLETED","completedTestCount":0,"customer":{"id":493309903,"username":"mattjeevas","email":"matt.jeevas@mail.ru","city":null}},{"id":16999987,"testTitle":"Nazvanie testa","targetSite":"https://wikipedia.org","testType":"SITE","created":"2020-08-19T07:49:55.364046Z","startDate":"2020-08-19T07:54:37.19791","testerCount":5,"testerType":"UXCrowd","status":"ACTIVE","completedTestCount":0,"customer":{"id":493309903,"username":"mattjeevas","email":"matt.jeevas@mail.ru","city":null}},{"id":16999937,"testTitle":"Test_Video_Watch","targetSite":"https://wikipedia.org","testType":"SITE","created":"2020-08-19T07:46:05.559748Z","startDate":"2020-08-19T07:50:26.399568","testerCount":1,"testerType":"UXCrowd","status":"COMPLETED","completedTestCount":0,"customer":{"id":493309903,"username":"mattjeevas","email":"matt.jeevas@mail.ru","city":null}},{"id":16999837,"testTitle":"test-63","targetSite":"https://yandex.ru/","testType":"SITE","created":"2020-08-18T22:29:32.448173Z","startDate":"2020-08-18T22:29:37.594243","testerCount":50,"testerType":"UXCrowd","status":"ACTIVE","completedTestCount":1,"customer":{"id":493309903,"username":"mattjeevas","email":"matt.jeevas@mail.ru","city":null}},{"id":16999787,"testTitle":"test-94","targetSite":"https://yandex.ru/","testType":"SITE","created":"2020-08-18T22:26:44.025972Z","startDate":"2020-08-18T22:26:49.412099","testerCount":50,"testerType":"UXCrowd","status":"ACTIVE","completedTestCount":0,"customer":{"id":493309903,"username":"mattjeevas","email":"matt.jeevas@mail.ru","city":null}},{"id":16999737,"testTitle":"41","targetSite":"https://yandex.ru/","testType":"SITE","created":"2020-08-18T22:18:15.522447Z","startDate":"2020-08-18T22:18:22.347634","testerCount":50,"testerType":"UXCrowd","status":"ACTIVE","completedTestCount":0,"customer":{"id":493309903,"username":"mattjeevas","email":"matt.jeevas@mail.ru","city":null}},{"id":16999687,"testTitle":"test-{randomNumber}","targetSite":"https://yandex.ru/","testType":"SITE","created":"2020-08-18T21:27:31.148955Z","startDate":"2020-08-18T21:27:37.084027","testerCount":50,"testerType":"UXCrowd","status":"COMPLETED","completedTestCount":0,"customer":{"id":493309903,"username":"mattjeevas","email":"matt.jeevas@mail.ru","city":null}},{"id":16999637,"testTitle":"{newTestTitle}","targetSite":"https://yandex.ru/","testType":"SITE","created":"2020-08-18T21:22:27.51543Z","startDate":"2020-08-18T21:22:33.621974","testerCount":50,"testerType":"UXCrowd","status":"COMPLETED","completedTestCount":0,"customer":{"id":493309903,"username":"mattjeevas","email":"matt.jeevas@mail.ru","city":null}},{"id":16999537,"testTitle":"test9999","targetSite":"https://yandex.ru/","testType":"SITE","created":"2020-08-18T20:42:21.386791Z","startDate":"2020-08-18T20:42:27.710262","testerCount":50,"testerType":"UXCrowd","status":"ACTIVE","completedTestCount":0,"customer":{"id":493309903,"username":"mattjeevas","email":"matt.jeevas@mail.ru","city":null}}],"pageable":{"sort":{"sorted":true,"unsorted":false,"empty":false},"pageSize":10,"pageNumber":5,"offset":50,"paged":true,"unpaged":false},"totalPages":13,"totalElements":123,"last":false,"first":false,"sort":{"sorted":true,"unsorted":false,"empty":false},"number":5,"numberOfElements":10,"size":10,"empty":false}