{"content":[{"id":17005337,"testTitle":"test-116","targetSite":"https://yandex.ru/","testType":"SITE","created":"2020-08-21T09:50:53.264776Z","startDate":"2020-08-21T09:50:55.286948","testerCount":50,"testerType":"UXCrowd","status":"ACTIVE","completedTestCount":0,"customer":{"id":493309903,"username":"mattjeevas","email":"matt.jeevas@mail.ru","city":null}},{"id":17005287,"testTitle":"test-811","targetSite":"https://yandex.ru/","testType":"SITE","created":"2020-08-21T09:39:46.179543Z","startDate":"2020-08-21T09:39:48.231939","testerCount":50,"testerType":"UXCrowd","status":"ACTIVE","completedTestCount":0,"customer":{"id":493309903,"username":"mattjeevas","email":"matt.jeevas@mail.ru","city":null}},{"id":17005237,"testTitle":"test-840","targetSite":"https://yandex.ru/","testType":"SITE","created":"2020-08-21T09:37:15.228102Z","startDate":"2020-08-21T09:37:20.138254","testerCount":50,"testerType":"UXCrowd","status":"ACTIVE","completedTestCount":0,"customer":{"id":493309903,"username":"mattjeevas","email":"matt.jeevas@mail.ru","city":null}},{"id":17005187,"testTitle":"test-766","targetSite":"https://yandex.ru/","testType":"SITE","created":"2020-08-21T09:07:13.71487Z","startDate":"2020-08-21T09:07:15.808062","testerCount":50,"testerType":"UXCrowd","status":"ACTIVE","completedTestCount":0,"customer":{"id":493309903,"username":"mattjeevas","email":"matt.jeevas@mail.ru","city":null}},{"id":17005037,"testTitle":"test-801","targetSite":"https://yandex.ru/","testType":"SITE","created":"2020-08-21T09:02:22.281866Z","startDate":"2020-08-21T09:02:24.381988","testerCount":50,"testerType":"UXCrowd","status":"ACTIVE","completedTestCount":0,"customer":{"id":493309903,"username":"mattjeevas","email":"matt.jeevas@mail.ru","city":null}},{"id":17004887,"testTitle":"test-852","targetSite":"https://yandex.ru/","testType":"SITE","created":"2020-08-21T08:57:54.561845Z","startDate":"2020-08-21T08:57:56.682734","testerCount":50,"testerType":"UXCrowd","status":"ACTIVE","completedTestCount":0,"customer":{"id":493309903,"username":"mattjeevas","email":"matt.jeevas@mail.ru","city":null}},{"id":17004837,"testTitle":"test-626","targetSite":"https://yandex.ru/","testType":"SITE","created":"2020-08-21T08:53:27.943391Z","startDate":"2020-08-21T08:53:30.057617","testerCount":50,"testerType":"UXCrowd","status":"ACTIVE","completedTestCount":0,"customer":{"id":493309903,"username":"mattjeevas","email":"matt.jeevas@mail.ru","city":null}},{"id":17004787,"testTitle":"test-118","targetSite":"https://yandex.ru/","testType":"SITE","created":"2020-08-21T08:51:41.937612Z","startDate":"2020-08-21T08:51:44.236385","testerCount":50,"testerType":"UXCrowd","status":"ACTIVE","completedTestCount":0,"customer":{"id":493309903,"username":"mattjeevas","email":"matt.jeevas@mail.ru","city":null}},{"id":17004737,"testTitle":"test-253","targetSite":"https://yandex.ru/","testType":"SITE","created":"2020-08-21T08:50:17.266366Z","startDate":"2020-08-21T08:50:19.408885","testerCount":50,"testerType":"UXCrowd","status":"ACTIVE","completedTestCount":0,"customer":{"id":493309903,"username":"mattjeevas","email":"matt.jeevas@mail.ru","city":null}},{"id":17004637,"testTitle":"test-924","targetSite":"https://yandex.ru/","testType":"SITE","created":"2020-08-21T08:47:21.196842Z","startDate":"2020-08-21T08:47:23.582324","testerCount":50,"testerType":"UXCrowd","status":"ACTIVE","completedTestCount":0,"customer":{"id":493309903,"username":"mattjeevas","email":"matt.jeevas@mail.ru","city":null}}],"pageable":{"sort":{"sorted":true,"unsorted":false,"empty":false},"pageSize":10,"pageNumber":0,"offset":0,"paged":true,"unpaged":false},"totalPages":13,"totalElements":123,"last":false,"first":true,"sort":{"sorted":true,"unsorted":false,"empty":false},"number":0,"numberOfElements":10,"size":10,"empty":false}