{"content":[{"id":16999487,"testTitle":"test9999","targetSite":"https://yandex.ru/","testType":"SITE","created":"2020-08-18T20:31:09.119915Z","startDate":"2020-08-18T20:31:15.363189","testerCount":50,"testerType":"UXCrowd","status":"ACTIVE","completedTestCount":0,"customer":{"id":493309903,"username":"mattjeevas","email":"matt.jeevas@mail.ru","city":null}},{"id":16998037,"testTitle":"test9999","targetSite":"https://yandex.ru/","testType":"SITE","created":"2020-08-18T12:49:56.476138Z","startDate":"2020-08-18T20:14:23.371928","testerCount":50,"testerType":"UXCrowd","status":"ACTIVE","completedTestCount":0,"customer":{"id":493309903,"username":"mattjeevas","email":"matt.jeevas@mail.ru","city":null}},{"id":16997587,"testTitle":"ТЕКСТ","targetSite":"https://wikipedia.org","testType":"SITE","created":"2020-08-14T14:16:28.181266Z","startDate":"2020-08-14T14:17:10.890893","testerCount":5,"testerType":"UXCrowd","status":"ACTIVE","completedTestCount":1,"customer":{"id":493309903,"username":"mattjeevas","email":"matt.jeevas@mail.ru","city":null}},{"id":16997537,"testTitle":"testname2","targetSite":"https://yandex.ru/","testType":"SITE","created":"2020-08-14T12:46:10.313424Z","startDate":"2020-08-14T12:48:34.706279","testerCount":5,"testerType":"UXCrowd","status":"ACTIVE","completedTestCount":0,"customer":{"id":493309903,"username":"mattjeevas","email":"matt.jeevas@mail.ru","city":null}},{"id":16997487,"testTitle":"testname","targetSite":"https://yandex.ru/","testType":"SITE","created":"2020-08-14T11:44:19.897941Z","startDate":"2020-08-14T11:47:27.871283","testerCount":5,"testerType":"UXCrowd","status":"ACTIVE","completedTestCount":0,"customer":{"id":493309903,"username":"mattjeevas","email":"matt.jeevas@mail.ru","city":null}},{"id":16997437,"testTitle":"by_Kifir","targetSite":"https://yandex.ru/","testType":"SITE","created":"2020-08-14T08:30:05.014509Z","startDate":"2020-08-14T08:32:14.717294","testerCount":5,"testerType":"UXCrowd","status":"ACTIVE","completedTestCount":1,"customer":{"id":493309903,"username":"mattjeevas","email":"matt.jeevas@mail.ru","city":null}},{"id":16997337,"testTitle":"Загрузить видео","targetSite":"https://yandex.ru","testType":"SITE","created":"2020-08-14T08:21:06.051085Z","startDate":"2020-08-14T08:26:45.683672","testerCount":5,"testerType":"UXCrowd","status":"ACTIVE","completedTestCount":0,"customer":{"id":493309903,"username":"mattjeevas","email":"matt.jeevas@mail.ru","city":null}},{"id":16997387,"testTitle":"тест о тесте тестов","targetSite":"https://www.google.com/","testType":"SITE","created":"2020-08-14T08:25:27.577904Z","startDate":"2020-08-14T08:26:13.509345","testerCount":50,"testerType":"UXCrowd","status":"ACTIVE","completedTestCount":0,"customer":{"id":493309903,"username":"mattjeevas","email":"matt.jeevas@mail.ru","city":null}},{"id":16997287,"testTitle":"14082020 тест","targetSite":"https://yandex.ru/","testType":"SITE","created":"2020-08-14T08:20:44.352592Z","startDate":"2020-08-14T08:21:18.145992","testerCount":50,"testerType":"UXCrowd","status":"ACTIVE","completedTestCount":1,"customer":{"id":493309903,"username":"mattjeevas","email":"matt.jeevas@mail.ru","city":null}},{"id":16997187,"testTitle":"1","targetSite":"https://www.google.ru/","testType":"SITE","created":"2020-08-14T07:37:11.696954Z","startDate":"2020-08-14T07:50:07.579902","testerCount":5,"testerType":"UXCrowd","status":"ACTIVE","completedTestCount":0,"customer":{"id":493309903,"username":"mattjeevas","email":"matt.jeevas@mail.ru","city":null}}],"pageable":{"sort":{"sorted":true,"unsorted":false,"empty":false},"pageSize":10,"pageNumber":6,"offset":60,"paged":true,"unpaged":false},"totalPages":13,"totalElements":123,"last":false,"first":false,"sort":{"sorted":true,"unsorted":false,"empty":false},"number":6,"numberOfElements":10,"size":10,"empty":false}