{"content":[{"id":16997087,"testTitle":"Тестовый для всех","targetSite":"https://yandex.ru/","testType":"SITE","created":"2020-08-14T06:58:11.590055Z","startDate":"2020-08-14T06:59:12.500389","testerCount":5,"testerType":"UXCrowd","status":"ACTIVE","completedTestCount":2,"customer":{"id":493309903,"username":"mattjeevas","email":"matt.jeevas@mail.ru","city":null}},{"id":16996987,"testTitle":"321","targetSite":"https://yandex.ru/","testType":"SITE","created":"2020-08-13T13:54:57.498906Z","startDate":"2020-08-13T13:56:19.964807","testerCount":5,"testerType":"Свои","status":"ACTIVE","completedTestCount":0,"customer":{"id":493309903,"username":"mattjeevas","email":"matt.jeevas@mail.ru","city":null}},{"id":16996737,"testTitle":"Wiki","targetSite":"https://ru.wikipedia.org/","testType":"SITE","created":"2020-08-13T12:22:05.540704Z","startDate":"2020-08-13T12:26:11.356834","testerCount":5,"testerType":"UXCrowd","status":"ACTIVE","completedTestCount":0,"customer":{"id":493309903,"username":"mattjeevas","email":"matt.jeevas@mail.ru","city":null}},{"id":16996687,"testTitle":"тестирование корзины","targetSite":"https://wikipedia.org","testType":"SITE","created":"2020-08-13T12:19:53.411859Z","startDate":"2020-08-13T12:21:48.419807","testerCount":50,"testerType":"UXCrowd","status":"ACTIVE","completedTestCount":2,"customer":{"id":493309903,"username":"mattjeevas","email":"matt.jeevas@mail.ru","city":null}},{"id":16996637,"testTitle":"Тестирование раздела","targetSite":"https://yandex.ru/","testType":"SITE","created":"2020-08-13T12:18:16.368482Z","startDate":"2020-08-13T12:21:05.907188","testerCount":5,"testerType":"UXCrowd","status":"ACTIVE","completedTestCount":0,"customer":{"id":493309903,"username":"mattjeevas","email":"matt.jeevas@mail.ru","city":null}},{"id":16996487,"testTitle":"test1","targetSite":"https://en.wikipedia.org/wiki/Intel_Core","testType":"SITE","created":"2020-08-13T07:48:31.08053Z","startDate":"2020-08-13T07:51:39.380536","testerCount":5,"testerType":"UXCrowd","status":"ACTIVE","completedTestCount":1,"customer":{"id":493309903,"username":"mattjeevas","email":"matt.jeevas@mail.ru","city":null}},{"id":16998787,"testTitle":"test9999","targetSite":"https://yandex.ru/","testType":"SITE","created":"2020-08-18T19:21:19.187058Z","testerCount":0,"testerType":"","status":"DRAFT","completedTestCount":0,"customer":{"id":493309903,"username":"mattjeevas","email":"matt.jeevas@mail.ru","city":null}},{"id":16998737,"testTitle":"test9999","targetSite":"https://yandex.ru/","testType":"SITE","created":"2020-08-18T19:19:11.72485Z","testerCount":0,"testerType":"","status":"DRAFT","completedTestCount":0,"customer":{"id":493309903,"username":"mattjeevas","email":"matt.jeevas@mail.ru","city":null}},{"id":16998687,"testTitle":"test9999","targetSite":"https://yandex.ru/","testType":"SITE","created":"2020-08-18T19:16:42.611766Z","testerCount":0,"testerType":"","status":"DRAFT","completedTestCount":0,"customer":{"id":493309903,"username":"mattjeevas","email":"matt.jeevas@mail.ru","city":null}},{"id":16998637,"testTitle":"test9999","targetSite":"https://yandex.ru/","testType":"SITE","created":"2020-08-18T19:05:29.973083Z","testerCount":0,"testerType":"","status":"DRAFT","completedTestCount":0,"customer":{"id":493309903,"username":"mattjeevas","email":"matt.jeevas@mail.ru","city":null}}],"pageable":{"sort":{"sorted":true,"unsorted":false,"empty":false},"pageSize":10,"pageNumber":7,"offset":70,"paged":true,"unpaged":false},"totalPages":13,"totalElements":123,"last":false,"first":false,"sort":{"sorted":true,"unsorted":false,"empty":false},"number":7,"numberOfElements":10,"size":10,"empty":false}